R Notebook
…
data <- data %>% replace_na(list(mvp=0))
data <- mutate(data, is_mvp = case_when(mvp == 0 ~ "NO",
                                        mvp == 1 ~ "YES"))

data_normalized <- mutate(data, pts = scale(pts), ast = scale(ast), reb = scale(reb), win_pct = scale(win_pct))
data_normalized

## # A tibble: 5,147 x 10
##    names        pts[,1] ast[,1] reb[,1]  wins total~1 win_p~2  year   mvp is_mvp
##    <chr>          <dbl>   <dbl>   <dbl> <dbl>   <dbl>   <dbl> <dbl> <dbl> <chr> 
##  1 Aaron Brooks -0.212    0.163  -0.832    20      53 -0.581   2013     0 NO    
##  2 Aaron Gray   -0.921   -0.601  -0.155    14      42 -0.814   2013     0 NO    
##  3 AJ Price     -0.106    0.972  -0.631    21      57 -0.628   2013     0 NO    
##  4 Al-Farouq A~ -0.178   -0.282   1.70     25      76 -0.837   2013     0 NO    
##  5 Al Harringt~ -0.544   -0.481  -0.346     3      10 -0.991   2013     0 NO    
##  6 Al Horford    1.51     0.775   2.73     42      74  0.427   2013     0 NO    
##  7 Al Jefferson  1.57     0.136   2.32     41      78  0.205   2013     0 NO    
##  8 Alan Anders~  0.381   -0.154  -0.518    31      65 -0.0532  2013     0 NO    
##  9 Alec Burks   -0.220   -0.236  -0.523    32      64  0.0691  2013     0 NO    
## 10 Alexey Shved  0.0441   1.04   -0.520    30      77 -0.516   2013     0 NO    
## # ... with 5,137 more rows, and abbreviated variable names 1: total_games,
## #   2: win_pct[,1]
…
arrange(filter(data, mvp == 0), desc(pts))

## # A tibble: 5,137 x 10
##    names                pts   ast   reb  wins total~1 win_pct  year   mvp is_mvp
##    <chr>              <dbl> <dbl> <dbl> <dbl>   <dbl>   <dbl> <dbl> <dbl> <chr> 
##  1 James Harden        36.1  7.51  6.64    51      78   0.654  2019     0 NO    
##  2 James Harden        34.3  7.53  6.56    43      68   0.632  2020     0 NO    
##  3 Stephen Curry       32.0  5.76  5.48    37      63   0.587  2021     0 NO    
##  4 Bradley Beal        31.3  4.42  4.72    32      60   0.533  2021     0 NO    
##  5 Joel Embiid         30.6  4.18 11.7     45      68   0.662  2022     0 NO    
##  6 Bradley Beal        30.5  6.09  4.25    20      57   0.351  2020     0 NO    
##  7 LeBron James        30.3  6.23  8.20    25      56   0.446  2022     0 NO    
##  8 Damian Lillard      30.0  8.03  4.30    33      66   0.5    2020     0 NO    
##  9 Giannis Antetokou~  29.9  5.79 11.6     45      67   0.672  2022     0 NO    
## 10 Kevin Durant        29.9  6.38  7.4     36      55   0.655  2022     0 NO    
## # ... with 5,127 more rows, and abbreviated variable name 1: total_games
…
current_season_df_normalized <- mutate(current_season_df, pts = scale(pts), ast = scale(ast), reb = scale(reb), win_pct = scale(win_pct))
current_season_df_normalized

## # A tibble: 503 x 8
##    names              pts[,1] ast[,1] reb[,1]  wins total_games win_pct[~1  year
##    <chr>                <dbl>   <dbl>   <dbl> <dbl>       <dbl>      <dbl> <dbl>
##  1 A.J. Lawson       -0.998    -0.999 -1.16       5          12     -0.470  2023
##  2 Aaron Gordon       1.11      0.433  1.31      35          48      1.41   2023
##  3 Aaron Holiday     -0.666    -0.342 -0.909     25          48      0.158  2023
##  4 Aaron Nesmith      0.0913   -0.428  0.0679    21          48     -0.344  2023
##  5 Aaron Wiggins     -0.347    -0.321 -0.118     23          43      0.242  2023
##  6 Admiral Schofield -0.637    -0.601 -0.650     11          27     -0.525  2023
##  7 AJ Green          -0.657    -0.805 -0.994     18          24      1.54   2023
##  8 AJ Griffin         0.0715   -0.494 -0.596     23          51     -0.263  2023
##  9 Al Horford         0.00103   0.328  1.07      30          43      1.22   2023
## 10 Alec Burks         0.590     0.103 -0.203     11          42     -1.40   2023
## # ... with 493 more rows, and abbreviated variable name 1: win_pct[,1]
…
#table <- head(arrange(current_season_df, desc(mvp_odds)), 10) %>% gt() %>% tab_header(title = "Predicted Top 10 MVP Standings, 2021-2022") %>% fmt_number(columns = c(pts, ast, reb, wins, total_games, win_pct))
#table %>% gtsave(filename = "MVP_Predictions_2022_Table.png", expand = 10)
#pct = sprintf("%3f", mvp_odds / sum(mvp_odds))
arrange(current_season_df, desc(mvp_odds))

## # A tibble: 503 x 10
##    names             pts   ast   reb  wins total~1 win_pct  year is_mv~2 mvp_o~3
##    <chr>           <dbl> <dbl> <dbl> <dbl>   <dbl>   <dbl> <dbl>   <dbl> <chr>  
##  1 Giannis Anteto~  32.2  5.35 12.4     31      43   0.721  2023       1 0.9762~
##  2 Nikola Jokic     24.7 10.2  11.3     35      47   0.745  2023       1 0.9125~
##  3 Joel Embiid      33.4  4.12 10.2     26      40   0.65   2023       0 0.1787~
##  4 Luka Doncic      33.4  8.23  8.85    28      47   0.596  2023       0 0.1206~
##  5 Jayson Tatum     30.9  4.45  8.73    36      51   0.706  2023       0 0.0910~
##  6 Kevin Durant     29.7  5.31  6.72    26      39   0.667  2023       0 0.0022~
##  7 Ja Morant        27.4  8.29  5.84    29      45   0.644  2023       0 0.0008~
##  8 James Harden     21   10.9   6.39    24      36   0.667  2023       0 0.0004~
##  9 Jaylen Brown     27.0  3.23  7.11    32      47   0.681  2023       0 0.0002~
## 10 Domantas Sabon~  18.6  7.02 12.3     29      51   0.569  2023       0 0.0001~
## # ... with 493 more rows, and abbreviated variable names 1: total_games,
## #   2: is_mvp_candidate, 3: mvp_odds
…
